epoch,loss,val_loss
0,0.807863234996502,0.7209236577153206
1,0.48699090945456414,1.1043520450592041
2,0.38929318075109587,1.3945368811488152
3,0.3128448818521253,1.0778250500559807
4,0.251412795902473,1.2014983385801314
5,0.21562018629457122,1.4005459189414977
6,0.1859129287641991,1.0034742936491967
7,0.15497521397754035,1.2121348217129708
8,0.14221307775693867,1.0760492846369742
9,0.11678892443773195,1.4278630286455154
10,0.10569185938851293,1.1224406518042087
